^E:\VISUAL STUDIO FILES\MYPING\MYPING\FORM1.RESX|E:\VISUAL STUDIO FILES\MYPING\MYPING\PROPERTIES\RESOURCES.RESX
E:\VISUAL STUDIO FILES\MYPING\MYPING\OBJ\X64\RELEASE\MYPING.FORM1.RESOURCES
E:\VISUAL STUDIO FILES\MYPING\MYPING\OBJ\X64\RELEASE\MYPING.PROPERTIES.RESOURCES.RESOURCES
